What's the plural of Eephus? | Seth dot cool
…
          807 words

          ·

          4 minute read

I downloaded a fairly large amount of pitch data from the MLB Statcast database: every pitch thrown during the 2017 season, with ~75 variables about each.

What’s the plural of Eephus?

For the uninitiated, the Eephus pitch is a very, very slow baseball pitch. I’d hoped that the plural of eephus would be eephucies (like matrices), but it turns out isn’t a real word at all. As far as I can tell from the Google Ngram viewer, it was first used in a baseball context around 1960. More on eephuses/eephucies later.

Which teams threw the hardest on average?

## # A tibble: 30 x 3
##    mlb_team `Release Speed`  rank
##      <fctr>           <dbl> <dbl>
##  1      PIT        90.34740     1
##  2      COL        90.12726     2
##  3      STL        89.51839     3
##  4      MIL        89.31547     4
##  5      NYY        89.29282     5
##  6      WSH        89.19172     6
##  7      DET        88.98667     7
##  8      NYM        88.96622     8
##  9      ARI        88.80662     9
## 10      CIN        88.77877    10
## # ... with 20 more rows

Eight of the top ten hardest throwing teams are in the National League, but since these rankings are likely buoyed by the relative velocity of fastballs thrown, I wanted to re-run the list by fastballs alone.

Which teams threw the fastest fastballs? (Part 1)

## # A tibble: 30 x 3
##    mlb_team `Release Speed` `fastball rank`
##      <fctr>           <dbl>           <dbl>
##  1      PIT        94.09749               1
##  2      NYY        93.92642               2
##  3      COL        93.88230               3
##  4      ATL        93.43004               4
##  5      STL        93.41358               5
##  6      WSH        93.20647               6
##  7      ARI        93.19483               7
##  8      CIN        93.14584               8
##  9      NYM        93.09486               9
## 10      LAD        93.06172              10
## # ... with 20 more rows
…
